[
  {
    "header": "Apple MacBook Air 13 Space Gray Late 2020 (MGN63)",
    "src": "./img/cards-img/comp1.jpg",
    "price": "1180",
    "article": "0001",
    "color": "black",
    "isFavorite": false,
    "inCart": false,
    "countInCart": 1,
    "allPrice": "1180"
  },
  {
    "header": "Acer Nitro 5 AN515-57 (NH.QESEP.00C)",
    "src": "./img/cards-img/comp2.jpg",
    "price": "934",
    "article": "0002",
    "color": "white",
    "isFavorite": false,
    "inCart": false,
    "countInCart": 1,
    "allPrice": "934"
  },
  {
    "header": "Apple MacBook Pro 14 Space Gray 2021 (MKGP3)",
    "src": "./img/cards-img/comp3.jpg",
    "price": "2246",
    "article": "0003",
    "color": "black",
    "isFavorite": false,
    "inCart": false,
    "countInCart": 1,
    "allPrice": "2246"
  },
  {
    "header": "Apple MacBook Air 13,6 M2 Midnight 2022 (MLY33)",
    "src": "./img/cards-img/comp4.jpg",
    "price": "1532",
    "article": "0004",
    "color": "white",
    "isFavorite": false,
    "inCart": false,
    "countInCart": 1,
    "allPrice": "1532"
  },
  {
    "header": "Apple MacBook Pro 14 Silver 2021 (MKGR3, Z15J001XN)",
    "src": "./img/cards-img/comp5.jpg",
    "price": "2247",
    "article": "0005",
    "color": "black",
    "isFavorite": false,
    "inCart": false,
    "countInCart": 1,
    "allPrice": "2247"
  },
  {
    "header": "Apple MacBook Pro 16” Space Gray 2021 (MK183)",
    "src": "./img/cards-img/comp6.jpg",
    "price": "2871",
    "article": "0006",
    "color": "white",
    "isFavorite": false,
    "inCart": false,
    "countInCart": 1,
    "allPrice": "2871"
  },
  {
    "header": "ASUS X515JA (X515JA-BQ2633W)",
    "src": "./img/cards-img/comp7.jpg",
    "price": "664",
    "article": "0007",
    "color": "black",
    "isFavorite": false,
    "inCart": false,
    "countInCart": 1,
    "allPrice": "664"
  },
  {
    "header": "ASUS TUF Gaming F17 FX706HC (FX706HC-HX007)",
    "src": "./img/cards-img/comp8.jpg",
    "price": "1175",
    "article": "0008",
    "color": "white",
    "isFavorite": false,
    "inCart": false,
    "countInCart": 1,
    "allPrice": "1175"
  },
  {
    "header": "Lenovo Legion 5 15ACH6H Phantom Blue (82JU00JFPB)",
    "src": "./img/cards-img/comp9.jpg",
    "price": "1377",
    "article": "0009",
    "color": "black",
    "isFavorite": false,
    "inCart": false,
    "countInCart": 1,
    "allPrice": "1377"
  },
  {
    "header": "Acer Nitro 5 AN515-57 (NH.QESEP.00D)",
    "src": "./img/cards-img/comp10.jpg",
    "price": "876",
    "article": "0010",
    "color": "white",
    "isFavorite": false,
    "inCart": false,
    "countInCart": 1,
    "allPrice": "876"
  }
]
